• DemoTools
…
#>    <chr>       <dbl>    <dbl>    <dbl>
#>  1 variable  0.00417  0.00222  0.00624
#>  2 variable  0.0598   0.0527   0.0658 
#>  3 variable  0.0220   0.0178   0.0265 
#>  4 variable  0.308    0.114    1.09   
#>  5 variable  0.181    0.156    0.204  
#>  6 variable  0.169    0.135    0.208  
#>  7 variable  0.0193   0.0177   0.0202 
#>  8 variable  0.130    0.119    0.145  
#>  9 variable  0.110    0.0936   0.129  
#> 10 variable 25.4     23.6     27.1    
#> 11 variable 65.1     63.1     67.0    
#> 
#> $fit_df
#> # A tibble: 81 x 6
#>      age   data median  lower  upper       diff_sq
#>    <int>  <dbl>  <dbl>  <dbl>  <dbl>         <dbl>
#>  1     0 0.0234 0.0234 0.0217 0.0252 0.00000000428
#>  2     1 0.0220 0.0222 0.0210 0.0233 0.0000000624 
#>  3     2 0.0212 0.0214 0.0203 0.0223 0.0000000479 
#>  4     3 0.0218 0.0209 0.0199 0.0217 0.000000972  
#>  5     4 0.0210 0.0205 0.0197 0.0213 0.000000235  
#>  6     5 0.0208 0.0202 0.0195 0.0209 0.000000323  
#>  7     6 0.0198 0.0200 0.0193 0.0207 0.0000000352 
#>  8     7 0.0207 0.0199 0.0192 0.0205 0.000000622  
#>  9     8 0.0182 0.0198 0.0191 0.0205 0.00000274   
#> 10     9 0.0186 0.0199 0.0192 0.0205 0.00000149   
#> # … with 71 more rows
…
